<?xml version="1.0" encoding="UTF-8" standalone="no"?>
<!-- Created with Inkscape (http://www.inkscape.org/) -->

<svg
   xmlns:dc="http://purl.org/dc/elements/1.1/"
   xmlns:cc="http://creativecommons.org/ns#"
   xmlns:rdf="http://www.w3.org/1999/02/22-rdf-syntax-ns#"
   xmlns:svg="http://www.w3.org/2000/svg"
   xmlns="http://www.w3.org/2000/svg"
   xmlns:sodipodi="http://sodipodi.sourceforge.net/DTD/sodipodi-0.dtd"
   xmlns:inkscape="http://www.inkscape.org/namespaces/inkscape"
   width="210mm"
   height="297mm"
   viewBox="0 0 210 297"
   version="1.1"
   id="svg2577"
   inkscape:version="0.92.3 (2405546, 2018-03-11)"
   sodipodi:docname="Literate-dotfiles.svg">
  <defs
     id="defs2571" />
  <sodipodi:namedview
     id="base"
     pagecolor="#ffffff"
     bordercolor="#666666"
     borderopacity="1.0"
     inkscape:pageopacity="0.0"
     inkscape:pageshadow="2"
     inkscape:zoom="0.12374369"
     inkscape:cx="-618.721"
     inkscape:cy="1460.1667"
     inkscape:document-units="mm"
     inkscape:current-layer="layer1"
     showgrid="false"
     inkscape:window-width="2560"
     inkscape:window-height="1303"
     inkscape:window-x="0"
     inkscape:window-y="0"
     inkscape:window-maximized="1" />
  <metadata
     id="metadata2574">
    <rdf:RDF>
      <cc:Work
         rdf:about="">
        <dc:format>image/svg+xml</dc:format>
        <dc:type
           rdf:resource="http://purl.org/dc/dcmitype/StillImage" />
        <dc:title></dc:title>
      </cc:Work>
    </rdf:RDF>
  </metadata>
  <g
     inkscape:label="Layer 1"
     inkscape:groupmode="layer"
     id="layer1">
    <text
       xml:space="preserve"
       style="font-style:normal;font-variant:normal;font-weight:normal;font-stretch:normal;font-size:120.48960876px;line-height:1.25;font-family:'Learning Curve';-inkscape-font-specification:'Learning Curve';letter-spacing:0px;word-spacing:0px;display:inline;fill:#000000;fill-opacity:1;stroke:none;stroke-width:3.01224017"
       x="-515.76526"
       y="194.48232"
       id="text2540"><tspan
         sodipodi:role="line"
         id="tspan2538"
         x="-515.76526"
         y="194.48232"
         style="stroke-width:3.01224017">iterate dotfiles</tspan></text>
    <path
       style="color:#000000;font-style:normal;font-variant:normal;font-weight:normal;font-stretch:normal;font-size:medium;line-height:normal;font-family:sans-serif;font-variant-ligatures:normal;font-variant-position:normal;font-variant-caps:normal;font-variant-numeric:normal;font-variant-alternates:normal;font-feature-settings:normal;text-indent:0;text-align:start;text-decoration:none;text-decoration-line:none;text-decoration-style:solid;text-decoration-color:#000000;letter-spacing:normal;word-spacing:normal;text-transform:none;writing-mode:lr-tb;direction:ltr;text-orientation:mixed;dominant-baseline:auto;baseline-shift:baseline;text-anchor:start;white-space:normal;shape-padding:0;clip-rule:nonzero;display:inline;overflow:visible;visibility:visible;opacity:1;isolation:auto;mix-blend-mode:normal;color-interpolation:sRGB;color-interpolation-filters:linearRGB;solid-color:#000000;solid-opacity:1;vector-effect:none;fill:#000000;fill-opacity:1;fill-rule:nonzero;stroke:none;stroke-width:2.71472359;stroke-linecap:round;stroke-linejoin:round;stroke-miterlimit:0;stroke-dasharray:0, 11.05327571;stroke-dashoffset:41.06000137;stroke-opacity:1;paint-order:normal;color-rendering:auto;image-rendering:auto;shape-rendering:auto;text-rendering:auto;enable-background:accumulate"
       d="m -514.3499,119.59845 -0.47314,0.77325 0.11881,0.89824 0.65754,0.62397 0.55114,0.11674 0.85434,-0.30269 0.47366,-0.77273 -0.11881,-0.89876 -0.65754,-0.62346 -0.55165,-0.11725 z m -9.91998,0.90496 -0.47366,0.77273 0.1188,0.89876 0.65806,0.62346 0.55114,0.11725 0.85434,-0.30269 0.47366,-0.77273 -0.1188,-0.89876 -0.65806,-0.62346 -0.55114,-0.11725 z m -6.41377,8.90965 -0.47314,0.77273 0.11828,0.89876 0.65806,0.62346 0.55114,0.11725 0.85435,-0.30269 0.47366,-0.77325 -0.11881,-0.89824 -0.65806,-0.62397 -0.55114,-0.11674 z m 14.61939,0.41426 -0.47315,0.77272 0.11829,0.89877 0.65806,0.62346 0.55113,0.11725 0.85435,-0.30269 0.47366,-0.77324 -0.1188,-0.89825 -0.65754,-0.62346 -0.55167,-0.11725 z m -49.00333,1.9685 -0.47315,0.77273 0.11829,0.89876 0.65806,0.62346 0.55114,0.11725 0.85434,-0.30269 0.47366,-0.77273 -0.1188,-0.89876 -0.65755,-0.62346 -0.55165,-0.11725 z m 40.02705,4.31562 -0.47366,0.77325 0.1188,0.89824 0.65754,0.62397 0.55165,0.11674 0.85435,-0.30269 0.47314,-0.77273 -0.11828,-0.89876 -0.65807,-0.62346 -0.55114,-0.11725 z m -32.39634,2.74381 -0.47314,0.77274 0.11828,0.89876 0.65807,0.62345 0.55114,0.11726 0.85434,-0.30269 0.47366,-0.77325 -0.1188,-0.89825 -0.65755,-0.62345 -0.55165,-0.11726 z m 21.91488,0.49329 -0.0408,0.0661 -0.002,7.5e-4 -0.47315,0.77273 0.11829,0.89877 0.65806,0.62344 0.55114,0.11674 0.85434,-0.30216 0.0408,-0.0661 0.002,-7.5e-4 0.47366,-0.77273 -0.11881,-0.89877 -0.65754,-0.62345 -0.55165,-0.11726 z m -11.02226,1.1281 -0.47366,0.77273 0.1188,0.89877 0.65754,0.62345 0.55166,0.11726 0.85434,-0.30269 0.47315,-0.77325 -0.11829,-0.89825 -0.65806,-0.62397 -0.55114,-0.11673 z m 7.07648,9.18135 -0.47315,0.77273 0.11829,0.89876 0.65806,0.62346 0.55114,0.11674 0.85434,-0.30269 0.47366,-0.77274 -0.1188,-0.89876 -0.65755,-0.62345 -0.55165,-0.11673 z m -3.48711,10.48816 -0.47314,0.77325 0.1188,0.89825 0.65754,0.62346 0.55166,0.11725 0.85435,-0.30269 0.47314,-0.77273 -0.1188,-0.89877 -0.65755,-0.62344 -0.55114,-0.11726 z m -4.10126,10.25936 -0.47365,0.77324 0.1188,0.89825 0.65754,0.62397 0.55166,0.11673 0.85434,-0.30268 0.47314,-0.77273 -0.11828,-0.89877 -0.65806,-0.62345 -0.55114,-0.11725 z m -26.45518,4.63845 -0.47314,0.77325 0.1188,0.89824 0.65754,0.62346 0.55114,0.11725 0.85486,-0.30269 0.47314,-0.77273 -0.1188,-0.89876 -0.65755,-0.62346 -0.55165,-0.11725 z m 10.86782,0.46642 -0.47366,0.77325 0.1188,0.89825 0.65754,0.62345 0.55166,0.11726 0.85434,-0.30269 0.47315,-0.77274 -0.1188,-0.89876 -0.65755,-0.62345 -0.55114,-0.11726 z m 48.5307,2.66582 -0.47366,0.77273 0.1188,0.89877 0.65807,0.62345 0.55114,0.11673 0.85434,-0.30216 0.47365,-0.77325 -0.1188,-0.89876 -0.65805,-0.62346 -0.55114,-0.11674 z m -38.43923,1.77326 -0.47314,0.77273 v 5.2e-4 l -0.0108,0.0181 0.1188,0.89877 0.65754,0.62346 0.55166,0.11724 0.85434,-0.30268 0.47315,-0.77325 v -5.3e-4 l 0.0108,-0.0181 -0.1188,-0.89824 -0.65754,-0.62397 -0.55165,-0.11674 z m -26.27182,3.75673 -0.47366,0.77273 0.11881,0.89876 0.65754,0.62346 0.55166,0.11673 0.85434,-0.30269 0.47314,-0.77273 -0.11828,-0.89876 -0.65807,-0.62345 -0.55113,-0.11674 z m 56.35512,1.66736 -0.47366,0.77273 0.11881,0.89876 0.65754,0.62346 0.55166,0.11674 0.85434,-0.30269 0.47314,-0.77274 -0.11829,-0.89876 -0.65805,-0.62345 -0.55114,-0.11674 z m -20.54296,0.15496 -0.47366,0.77273 0.1188,0.89877 0.65754,0.62345 0.55166,0.11725 0.85434,-0.30269 0.47315,-0.77324 -0.11829,-0.89825 -0.65806,-0.62397 -0.55114,-0.11674 z m -17.69792,1.7841 -0.47314,0.77273 0.11829,0.89876 0.65805,0.62346 0.55114,0.11674 0.85435,-0.30218 0.47366,-0.77325 -0.11881,-0.89876 -0.65754,-0.62345 -0.55166,-0.11674 z m 28.06574,1.83472 -0.47315,0.77325 0.1188,0.89876 0.65754,0.62345 0.55114,0.11674 0.85435,-0.30269 0.47366,-0.77273 -0.1188,-0.89876 -0.65755,-0.62346 -0.55166,-0.11674 z m -38.65154,0.9406 -0.47314,0.77273 0.11881,0.89876 0.65754,0.62346 0.55166,0.11725 0.85434,-0.30269 0.47314,-0.77324 -0.1188,-0.89825 -0.65754,-0.62346 -0.55114,-0.11724 z"
       id="path872"
       inkscape:connector-curvature="0" />
    <text
       xml:space="preserve"
       style="font-style:normal;font-variant:normal;font-weight:normal;font-stretch:normal;font-size:120.48960876px;line-height:1.25;font-family:'Learning Curve';-inkscape-font-specification:'Learning Curve';letter-spacing:0px;word-spacing:0px;display:inline;fill:#000000;fill-opacity:1;stroke:none;stroke-width:0.2;stroke-miterlimit:0;stroke-dasharray:none"
       x="-569.96204"
       y="71.53833"
       id="text2540-2"><tspan
         sodipodi:role="line"
         id="tspan2538-2"
         x="-569.96204"
         y="71.53833"
         style="stroke-width:0.2;stroke-miterlimit:0;stroke-dasharray:none">Literate dotfiles</tspan></text>
    <text
       xml:space="preserve"
       style="font-style:normal;font-variant:normal;font-weight:normal;font-stretch:normal;font-size:455.59918213px;line-height:1.25;font-family:'Learning Curve';-inkscape-font-specification:'Learning Curve';letter-spacing:0px;word-spacing:0px;display:inline;fill:#000000;fill-opacity:1;stroke:none;stroke-width:11.38997936"
       x="-1200.588"
       y="439.64224"
       id="text2540-6"><tspan
         sodipodi:role="line"
         id="tspan2538-9"
         x="-1200.588"
         y="439.64224"
         style="stroke-width:11.38997936">iterate dotfiles</tspan></text>
    <path
       sodipodi:nodetypes="ccssssscscszssccssscsc"
       inkscape:connector-curvature="0"
       id="path1250"
       d="m -1383.8048,205.86368 c 0,27.80949 58.8077,41.30804 113.9922,29.04636 0,0 80.5465,-15.09106 81.3484,-61.59596 0.1246,-7.22795 -2.9382,-18.88504 -16.039,-18.88504 -37.6823,0 -52.5252,54.45015 -67.4261,80.481 -14.9009,26.03084 -29.9296,107.32492 -64.712,154.03674 -16.8045,22.56806 -40.3447,38.10124 -72.9577,38.10124 -21.782,0 -26.5104,-18.44543 -26.5104,-28.84696 0,-20.81438 19.0439,-31.61856 37.1544,-30.50196 18.1104,1.11659 37.5883,6.59447 62.3137,20.86969 18.9668,10.95047 53.422,34.94868 78.6707,35.03716 23.4218,0.0821 51.9238,-29.73342 79.6971,-58.57078 27.7732,-28.83737 106.7414,-93.83225 62.7741,-169.82951 -11.7099,-20.24049 -24.1003,-40.3274 -40.9475,-57.17458 -40.4152,-40.415057 -95.2299,-63.119967 -152.3854,-63.119917 h -10e-5 c -57.1556,8e-5 -111.9701,22.705061 -152.3851,63.120107 -40.415,40.41505 -63.12,95.22957 -63.1201,152.38508 0,57.15557 22.7049,111.97026 63.1199,152.38541 40.415,40.41516 95.2297,63.12022 152.3853,63.1203 52.6157,-0.0443 103.3975,-19.33612 142.771,-54.2381 23.3923,-20.73566 41.7975,-46.13005 54.2177,-74.28138"
       style="display:inline;opacity:1;fill:none;stroke:#000000;stroke-width:10.26500034;stroke-linecap:round;stroke-linejoin:round;stroke-miterlimit:0;stroke-dasharray:0, 41.79500181;stroke-dashoffset:41.06000137;stroke-opacity:1;paint-order:normal" />
  </g>
</svg>
